module github.com/mhuanteraxe/api-server

go 1.15

require (
	github.com/BurntSushi/toml v0.3.1
	github.com/asaskevich/govalidator v0.0.0-20200907205600-7a23bdc65eef // indirect
	github.com/go-ozzo/ozzo-validation v3.6.0+incompatible
	github.com/google/uuid v1.1.2
	github.com/gorilla/handlers v1.5.1
	github.com/gorilla/mux v1.8.0
	github.com/gorilla/securecookie v1.1.1
	github.com/gorilla/sessions v1.2.1
	github.com/lib/pq v1.8.0
	github.com/sirupsen/logrus v1.7.0
	github.com/stretchr/testify v1.6.1
	golang.org/x/crypto v0.0.0-20201117144127-c1f2f97bffc9
)
